IGHV1-86	116009659..116009954	P
IGHV1-85	116000028..116000321	F
IGHV1-84	115980702..115981134	F
IGHV1-83	115963817..115964109	P
IGHV1-82	115952538..115952831	F
IGHV1-81	115920279..115920572	F
IGHV1-80	115912344..115912637	F
IGHV1-79	115888096..115888389	P
IGHV1-78	115868773..115869066	F
IGHV1-77	115861867..115862160	F
IGHV8-16	115858008..115858301	P
IGHV1-76	115847881..115848174	F
IGHV8-15	115844016..115844309	P
IGHV1-75	115833950..115834243	F
IGHV8-14	115808427..115808727	P
IGHV1-74	115802690..115803080	F
IGHV1-73	115790593..115790887	P
IGHV8-13	115765335..115765635	P
IGHV1-72	115757984..115758277	F
IGHV1-71	115742205..115742506	F
IGHV1-70	115691889..115692182	P
IGHV8-12	115647945..115648245	F
IGHV1-69	115623203..115623595	F
IGHV1-68	115611340..115611633	P
IGHV1-67	115603940..115604233	P
IGHV1-66	115593110..115593403	F
IGHV8-11	115567149..115567449	F
IGHV1-65	115532055..115532347	P
IGHV8-10	115519340..115519640	P
IGHV1-64	115507587..115507977	F
IGHV1-63	115495625..115496058	F
IGHV8-9	115468331..115468632	ORF
IGHV1-62-3	115460999..115461431	ORF
IGHV1-62-2	115446417..115446710	F
IGHV1-62-1	115386707..115386988	F
IGHV1-62	115371986..115372278	P
IGHV1-61	115359140..115359433	F
IGHV1-60	115344537..115344830	P
IGHV1-59	115335057..115335513	F
IGHV1-58	115312166..115312597	F
IGHV8-8	115294066..115294362	F
IGHV1-57	115268424..115268715	P
IGHV8-7	115258139..115258432	P
IGHV1-56	115242802..115243095	F
IGHV1-55	115208137..115208527	F
IGHV1-54	115193675..115193968	F
IGHV8-6	115165777..115166077	F
IGHV1-53	115158445..115158835	F
IGHV1-52	115145487..115145780	F
IGHV1-51	115131375..115131668	P
IGHV1-50	115119748..115120041	F
IGHV8-5	115067560..115067860	F
IGHV1-49	115055223..115055516	F
IGHV1-48	115038227..115038520	P
IGHV8-4	115024026..115024318	ORF
IGHV8-3	115003418..115003712	P
IGHV1-47	114991108..114991401	F
IGHV1-46	114977693..114977986	P
IGHV1-45	114970055..114970348	P
IGHV1-44	114963380..114963674	P
IGHV1-43	114945950..114946243	F
IGHV1-42	114937154..114937544	F
IGHV1-41	114932371..114932664	P
IGHV1-40	114924941..114925233	P
IGHV1-39	114914599..114914892	F
IGHV1-38	114910011..114910303	P
IGHV1-37	114896238..114896531	F
IGHV1-36	114879888..114880181	F
IGHV1-35	114875302..114875597	P
IGHV1-34	114851190..114851483	F
IGHV1-33	114843693..114844083	P
IGHV1-32	114835223..114835516	P
IGHV1-31	114829264..114829557	F
IGHV1-30	114817099..114817390	P
IGHV1-29	114812321..114812605	P
IGHV1-28	114809421..114809714	P
IGHV1-27	114804616..114804909	P
IGHV1-26	114788372..114788665	F
IGHV1-25	114781409..114781702	P
IGHV1-24	114772928..114773221	ORF
IGHV1-23	114764450..114764743	ORF
IGHV1-22	114746273..114746566	F
IGHV1-21	114740383..114740840	P
IGHV1-21-1	114736245..114736538	P
IGHV1-20	114723772..114724065	F
IGHV1-19	114708648..114708941	F
IGHV1-19-1	114704147..114704440	P
IGHV1-18	114682632..114682925	F
IGHV1-17	114676749..114677042	P
IGHV1-17-1	114671968..114672262	F
IGHV1-16	114665872..114666165	ORF
IGHV1-15	114657353..114657646	F
IGHV1-14	114646572..114646865	F
IGHV1-13	114630680..114630973	P
IGHV1-12	114615850..114616143	F
IGHV1-11	114612244..114612536	F
IGHV1-10	114597878..114598175	P
IGHV1-9	114583569..114583862	F
IGHV15-2	114564578..114564874	F
IGHV1-8	114555610..114555902	P
IGHV10-4	114547258..114547556	P
IGHV1-7	114538495..114538788	F
IGHV1-6	114532972..114533264	P
IGHV10-3	114523441..114523887	F
IGHV1-5	114513330..114513623	F
IGHV10-2	114496003..114496300	P
IGHV1-4	114487136..114487429	F
IGHV1-3	114481615..114481916	P
IGHV10-1	114479007..114479451	F
IGHV1-2	114469075..114469371	P
IGHV8-2	114462290..114462589	ORF
IGHV6-7	114455626..114455925	F
IGHV6-6	114434788..114435087	F
IGHV6-5	114416596..114416895	F
IGHV6-4	114406474..114406773	F
IGHV6-3	114391712..114392010	F
IGHV12-3	114366526..114366819	F
IGHV13-2	114357761..114358060	F
IGHV1-1	114351705..114351995	P
IGHV8-1	114332796..114333086	P
IGHV3-8	114322376..114322666	F
IGHV5-21	114320030..114320324	P
IGHV3-7	114314186..114314479	P
IGHV9-4	114299961..114300254	F
IGHV3-6	114288152..114288447	F
IGHV13-1	114267607..114267906	P
IGHV3-5	114262652..114262950	F
IGHV3-4	114253617..114253915	F
IGHV7-4	114222788..114223254	F
IGHV3-3	114196439..114196875	F
IGHV14-4	114176438..114176867	F
IGHV15-1	114158025..114158315	P
IGHV7-3	114153180..114153644	F
IGHV9-3	114140692..114141122	F
IGHV12-2	114127533..114127984	P
IGHV9-2	114109001..114109430	F
IGHV12-1	114107259..114107563	P
IGHV9-1	114093928..114094221	F
IGHV6-2	114089387..114089681	P
IGHV16-1	114068828..114069126	ORF
IGHV14-3	114059845..114060273	F
IGHV11-2	114048241..114048704	F
IGHV3-2	114033803..114034097	P
IGHV4-2	114013144..114013439	P
IGHV14-2	113994469..113994898	F
IGHV11-1	113981879..113982174	F
IGHV3-1	113964390..113964683	F
IGHV4-1	113948284..113948577	F
IGHV14-1	113931953..113932246	F
IGHV7-2	113912025..113912483	F
IGHV7-1	113896408..113896946	P
IGHV5-19	113884761..113885342	P
IGHV2-9	113879097..113879388	F
IGHV2-8	113877361..113877659	P
IGHV5-18	113875772..113876239	P
IGHV5-17	113859149..113859442	F
IGHV5-16	113838528..113838821	F
IGHV5-15	113826648..113826941	F
IGHV2-7	113807314..113807747	F
IGHV2-6-8	113796138..113796430	F
IGHV2-9-1	113769857..113770142	F
IGHV5-12-4	113762251..113762544	F
IGHV5-9-1	113736113..113736406	F
IGHV2-6	113716672..113716962	F
IGHV5-12	113702126..113702419	F
IGHV5-11	113687229..113687505	P
IGHV2-5	113685482..113685774	F
IGHV5-10	113669673..113669968	P
IGHV5-9	113661771..113662228	F
IGHV5-8	113654967..113655245	P
IGHV2-4	113653291..113653583	F
IGHV5-7	113634686..113634981	P
IGHV5-6	113625508..113625801	F
IGHV5-5	113612965..113613442	P
IGHV2-3	113611184..113611476	F
IGHV6-1	113603460..113603928	P
IGHV5-4	113597448..113597741	F
IGHV5-3	113589967..113590243	P
IGHV2-2	113588267..113588700	F
IGHV5-2	113578504..113578990	F
IGHV2-1	113574247..113574540	P
IGHV5-1	113572929..113573222	P
IGHV1S34	null	F
IGHV1S73	null	F
IGHV1S46	null	F
IGHV1S55	null	F
IGHV2-2-2	null	F
IGHV1S108	null	F
IGHV1S11	null	P
IGHV1S100	null	F
IGHV(III)-3	null	P
IGHV12S2	null	P
IGHV1S53	null	F
IGHV1S52	null	F
IGHV6S2	null	F
IGHV2-6-2	null	F
IGHV1S18	null	P
IGHV1S135	null	F
IGHV1S110	null	P
IGHV1S10	null	P
IGHV(II)-2	null	P
IGHV1S17	null	P
IGHV1S121	null	F
IGHV(II)-5	null	P
IGHV1S83	null	F
IGHV2-6-3	null	F
IGHV1S101	null	P
IGHV5S12	null	F
IGHV3S7	null	F
IGHV1S21	null	F
IGHV5S24	null	F
IGHV1S9	null	P
IGHV2-5-1	null	F
IGHV5-7-1	null	P
IGHV1S68	null	F
IGHV(III)-8	null	P
IGHV6S3	null	F
IGHV1S15	null	P
IGHV5-9-3	null	F
IGHV1S87	null	F
IGHV(III)-2	null	P
IGHV12-2-1	null	ORF
IGHV1S88	null	P
IGHV2-2-1	null	P
IGHV1S57	null	P
IGHV1S30	null	P
IGHV2-6-6	null	F
IGHV8-8-1	null	ORF
IGHV1S41	null	F
IGHV1S84	null	P
IGHV(III)-6	null	P
IGHV(III)-5	null	P
IGHV9-3-1	null	F
IGHV1S26	null	F
IGHV12-1-1	null	F
IGHV1S134	null	F
IGHV(II)-3	null	P
IGHV(II)-4	null	P
IGHV1S120	null	F
IGHV1S61	null	F
IGHV2-6-1	null	F
IGHV1S111	null	F
IGHV8S9	null	F
IGHV1S130	null	F
IGHV1S95	null	F
IGHV(III)-7	null	P
IGHV1S67	null	F
IGHV1S28	null	P
IGHV5-7-5	null	P
IGHV5-8-2	null	P
IGHV5-6-2	null	F
IGHV1S40	null	F
IGHV2-9-2	null	F
IGHV1S70	null	F
IGHV5-9-4	null	F
IGHV1S103	null	F
IGHV5-11-2	null	P
IGHV1S37	null	F
IGHV1S107	null	F
IGHV5-8-3	null	P
IGHV1S14	null	F
IGHV(III)-11	null	P
IGHV1S78	null	F
IGHV1S50	null	F
IGHV1S81	null	F
IGHV1S45	null	F
IGHV5-8-1	null	P
IGHV5-10-1	null	P
IGHV1S22	null	F
IGHV14S4	null	F
IGHV1S47	null	ORF
IGHV8S2	null	P
IGHV2-4-1	null	F
IGHV5-6-1	null	F
IGHV1S20	null	F
IGHV1S16	null	P
IGHV1S36	null	F
IGHV5-12-2	null	F
IGHV5-9-2	null	F
IGHV1S56	null	F
IGHV9-2-1	null	F
IGHV3S1	null	F
IGHV1S72	null	F
IGHV1S127	null	F
IGHV2-6-7	null	F
IGHV2-6-5	null	F
IGHV1S118	null	F
IGHV5-5-1	null	P
IGHV1S137	null	F
IGHV9S7	null	F
IGHV1S29	null	F
IGHV1S5	null	F
IGHV(III)-1	null	P
IGHV(III)-9	null	P
IGHV1S82	null	F
IGHV12-1-2	null	P
IGHV10S3	null	F
IGHV1S132	null	F
IGHV(II)-1	null	P
IGHV6S4	null	F
IGHV(III)-10	null	P
IGHV5-6-4	null	F
IGHV1S122	null	F
IGHV1S124	null	P
IGHV5-13-1	null	P
IGHV1S92	null	F
IGHV6-1-1	null	P
IGHV5-10-2	null	P
IGHV2-6-4	null	F
IGHV1S96	null	F
IGHV1S112	null	P
IGHV5-13	null	P
IGHV8S1	null	P
IGHV5S4	null	F
IGHV1-87	null	F
IGHV5-7-2	null	P
IGHV2-3-1	null	F
IGHV5S9	null	F
IGHV1S35	null	F
IGHV5-11-1	null	P
IGHV2S3	null	F
IGHV1S44	null	F
IGHV1S49	null	F
IGHV1S33	null	F
IGHV1S74	null	P
IGHV5-6-6	null	F
IGHV10S4	null	F
IGHV9S8	null	F
IGHV1S32	null	F
IGHV1S75	null	F
IGHV1S113	null	F
IGHV5S21	null	F
IGHV1S126	null	F
IGHV5-6-5	null	F
IGHV5-6-3	null	F
IGHV1S136	null	F
IGHV5-7-3	null	P
IGHV5-9-5	null	F
IGHV5-12-1	null	F
IGHV(III)-4	null	P
IGHV1S31	null	F
IGHV8S6	null	P
IGHV10S5	null	P
IGHV5-12-3	null	P
IGHV1S65	null	F
IGHV5-7-4	null	P
IGHV1S51	null	P
IGHV1S12	null	F
IGHV1S19	null	P
